[gd_resource type="Theme" load_steps=2 format=3 uid="uid://dbt5f1inyjmmm"]

[ext_resource type="FontFile" uid="uid://db7uj32kttc7o" path="res://fonts/coolvetica condensed rg.otf" id="1_vu28x"]

[resource]
default_font = ExtResource("1_vu28x")
default_font_size = 40
