[gd_scene load_steps=3 format=3 uid="uid://cxclqalcxni8b"]

[ext_resource type="Theme" uid="uid://dbt5f1inyjmmm" path="res://fonts/font.tres" id="1_hnyse"]
[ext_resource type="Script" path="res://thumbnail.gd" id="3_pwskg"]

[node name="Thumbnail" type="Button" groups=["thumbnails"]]
offset_right = 1152.0
offset_bottom = 648.0
grow_horizontal = 2
grow_vertical = 2
size_flags_vertical = 3
theme = ExtResource("1_hnyse")
script = ExtResource("3_pwskg")

[connection signal="focus_entered" from="." to="." method="_on_focus_entered"]
[connection signal="focus_exited" from="." to="." method="_on_focus_exited"]
[connection signal="pressed" from="." to="." method="_on_pressed"]
